…
    ## Warning in FUN(X[[i]], ...): unable to translate '<U+00E6>' to native encoding

    ## Warning in FUN(X[[i]], ...): unable to translate '<U+00D8>' to native encoding

    ## Warning in FUN(X[[i]], ...): unable to translate '<U+00F8>' to native encoding

    ## Warning in FUN(X[[i]], ...): unable to translate '<U+00C5>' to native encoding

    ## Warning in FUN(X[[i]], ...): unable to translate '<U+00E5>' to native encoding

``` r
trashWheels_df
```

    ## # A tibble: 344 x 14
    ##    dumpster month  year date                weight_tons volume_cubic_yards
    ##       <dbl> <chr> <dbl> <dttm>                    <dbl>              <dbl>
    ##  1        1 May    2014 2014-05-16 00:00:00        4.31                 18
    ##  2        2 May    2014 2014-05-16 00:00:00        2.74                 13
    ##  3        3 May    2014 2014-05-16 00:00:00        3.45                 15
    ##  4        4 May    2014 2014-05-17 00:00:00        3.1                  15
    ##  5        5 May    2014 2014-05-17 00:00:00        4.06                 18
    ##  6        6 May    2014 2014-05-20 00:00:00        2.71                 13
    ##  7        7 May    2014 2014-05-21 00:00:00        1.91                  8
    ##  8        8 May    2014 2014-05-28 00:00:00        3.7                  16
    ##  9        9 June   2014 2014-06-05 00:00:00        2.52                 14
    ## 10       10 June   2014 2014-06-11 00:00:00        3.76                 18
    ## # ... with 334 more rows, and 8 more variables: plastic_bottles <dbl>,
    ## #   polystyrene <dbl>, cigarette_butts <dbl>, glass_bottles <dbl>,
    ## #   grocery_bags <dbl>, chip_bags <dbl>, sports_balls <dbl>,
    ## #   homes_powered <dbl>
…
``` r
#pols_month_df_raw
 
pol_month_df = pols_month_df_raw %>%       
  janitor::clean_names() %>% 
  separate(mon, into = c("year", "month", "day"), sep = "-", convert = T) %>% 
  mutate(month = month.name[month], 
         president = ifelse(prez_gop >= 1 & prez_dem == 0, "gop", "dem")) %>% 
  select(-c(day, prez_gop, prez_dem))
  
pol_month_df
```

    ## # A tibble: 822 x 9
    ##     year month     gov_gop sen_gop rep_gop gov_dem sen_dem rep_dem president
    ##    <int> <chr>       <dbl>   <dbl>   <dbl>   <dbl>   <dbl>   <dbl> <chr>    
    ##  1  1947 January        23      51     253      23      45     198 dem      
    ##  2  1947 February       23      51     253      23      45     198 dem      
    ##  3  1947 March          23      51     253      23      45     198 dem      
    ##  4  1947 April          23      51     253      23      45     198 dem      
    ##  5  1947 May            23      51     253      23      45     198 dem      
    ##  6  1947 June           23      51     253      23      45     198 dem      
    ##  7  1947 July           23      51     253      23      45     198 dem      
    ##  8  1947 August         23      51     253      23      45     198 dem      
    ##  9  1947 September      23      51     253      23      45     198 dem      
    ## 10  1947 October        23      51     253      23      45     198 dem      
    ## # ... with 812 more rows
…
``` r
#snp_df_raw
 
snp_df = snp_df_raw %>%       
  janitor::clean_names() %>% 
  separate(mon, into = c("year", "month", "day"), sep = "-", convert = T) %>% 
  mutate(month = month.name[month], 
         president = ifelse(prez_gop >= 1 & prez_dem == 0, "gop", "dem")) %>% 
  select(-c(day, prez_gop, prez_dem)) %>% 
  arrange(year, month)
  
snp_df
```

    ## # A tibble: 822 x 9
    ##     year month    gov_gop sen_gop rep_gop gov_dem sen_dem rep_dem president
    ##    <int> <chr>      <dbl>   <dbl>   <dbl>   <dbl>   <dbl>   <dbl> <chr>    
    ##  1  1947 April         23      51     253      23      45     198 dem      
    ##  2  1947 August        23      51     253      23      45     198 dem      
    ##  3  1947 December      24      51     253      23      45     198 dem      
    ##  4  1947 February      23      51     253      23      45     198 dem      
    ##  5  1947 January       23      51     253      23      45     198 dem      
    ##  6  1947 July          23      51     253      23      45     198 dem      
    ##  7  1947 June          23      51     253      23      45     198 dem      
    ##  8  1947 March         23      51     253      23      45     198 dem      
    ##  9  1947 May           23      51     253      23      45     198 dem      
    ## 10  1947 November      24      51     253      23      45     198 dem      
    ## # ... with 812 more rows
…
``` r
unemployment_df_raw = read.csv("./data/fivethirtyeight_datasets/unemployment.csv") 

#unemployment_df_raw

unemployment_df = unemployment_df_raw %>%
  pivot_longer(Jan:Dec, names_to = "month", values_to = "unemployment_percentage") %>%
  mutate(month = match(month, month.abb), month = month.name[month]) %>% 
  janitor::clean_names()

unemployment_df
```

    ## # A tibble: 816 x 3
    ##     year month     unemployment_percentage
    ##    <int> <chr>                       <dbl>
    ##  1  1948 January                       3.4
    ##  2  1948 February                      3.8
    ##  3  1948 March                         4  
    ##  4  1948 April                         3.9
    ##  5  1948 May                           3.5
    ##  6  1948 June                          3.6
    ##  7  1948 July                          3.6
    ##  8  1948 August                        3.9
    ##  9  1948 September                     3.8
    ## 10  1948 October                       3.7
    ## # ... with 806 more rows

``` r
merged_df = left_join(pol_month_df, snp_df, by = c("year", "month")) %>% 
  left_join(unemployment_df, by = c("year", "month")) %>% 
  janitor::clean_names()

year_range = merged_df %>% 
  select(year) %>% 
  range()

merged_df
```

    ## # A tibble: 822 x 17
    ##     year month     gov_gop_x sen_gop_x rep_gop_x gov_dem_x sen_dem_x rep_dem_x
    ##    <int> <chr>         <dbl>     <dbl>     <dbl>     <dbl>     <dbl>     <dbl>
    ##  1  1947 January          23        51       253        23        45       198
    ##  2  1947 February         23        51       253        23        45       198
    ##  3  1947 March            23        51       253        23        45       198
    ##  4  1947 April            23        51       253        23        45       198
    ##  5  1947 May              23        51       253        23        45       198
    ##  6  1947 June             23        51       253        23        45       198
    ##  7  1947 July             23        51       253        23        45       198
    ##  8  1947 August           23        51       253        23        45       198
    ##  9  1947 September        23        51       253        23        45       198
    ## 10  1947 October          23        51       253        23        45       198
    ## # ... with 812 more rows, and 9 more variables: president_x <chr>,
    ## #   gov_gop_y <dbl>, sen_gop_y <dbl>, rep_gop_y <dbl>, gov_dem_y <dbl>,
    ## #   sen_dem_y <dbl>, rep_dem_y <dbl>, president_y <chr>,
    ## #   unemployment_percentage <dbl>
…
